…
# look at a couple problematic studies
left_join(filter(study_tiss_count, common_tiss=="Prostate" & study_type=="f" & gse %in% non_cell_line), comb_labels)

## Joining, by = "gse"

## # A tibble: 38 x 14
##    gse   num_f num_m study_type common_tiss gsm   toker_sex massir_sex
##    <chr> <int> <int> <chr>      <chr>       <chr> <chr>     <chr>     
##  1 GSE1     2     0 f          Prostate    GSM3 <NA>      <NA>      
##  2 GSE1     2     0 f          Prostate    GSM3 <NA>      <NA>      
##  3 GSE1    24     0 f          Prostate    GSM3 <NA>      female    
##  4 GSE1    24     0 f          Prostate    GSM3 <NA>      female    
##  5 GSE1    24     0 f          Prostate    GSM3 <NA>      male      
##  6 GSE1    24     0 f          Prostate    GSM3 <NA>      female    
##  7 GSE1    24     0 f          Prostate    GSM3 <NA>      female    
##  8 GSE1    24     0 f          Prostate    GSM3 <NA>      female    
##  9 GSE1    24     0 f          Prostate    GSM3 <NA>      female    
## 10 GSE1    24     0 f          Prostate    GSM3 <NA>      female    
## # ... with 28 more rows, and 6 more variables: rank_sex <chr>,
## #   tissue <chr>, gpl <chr>, text_sex <chr>, text_tissue_name <chr>,
## #   cell_line <chr>

left_join(filter(study_tiss_count, common_tiss=="Breast" & study_type=="m"), comb_labels)

## Joining, by = "gse"

## # A tibble: 1,372 x 14
##    gse   num_f num_m study_type common_tiss gsm   toker_sex massir_sex
##    <chr> <int> <int> <chr>      <chr>       <chr> <chr>     <chr>     
##  1 GSE1     0    21 m          Breast      GSM2 <NA>      female    
##  2 GSE1     0    21 m          Breast      GSM2 <NA>      female    
##  3 GSE1     0    21 m          Breast      GSM2 <NA>      female    
##  4 GSE1     0    21 m          Breast      GSM2 <NA>      male      
##  5 GSE1     0    21 m          Breast      GSM2 <NA>      male      
##  6 GSE1     0    21 m          Breast      GSM2 <NA>      male      
##  7 GSE1     0    21 m          Breast      GSM2 <NA>      male      
##  8 GSE1     0    21 m          Breast      GSM2 <NA>      male      
##  9 GSE1     0    21 m          Breast      GSM2 <NA>      male      
## 10 GSE1     0    21 m          Breast      GSM2 <NA>      male      
## # ... with 1,362 more rows, and 6 more variables: rank_sex <chr>,
## #   tissue <chr>, gpl <chr>, text_sex <chr>, text_tissue_name <chr>,
## #   cell_line <chr>
